<?xml version="1.0" encoding="UTF-8" standalone="no"?>
<!-- Generator: Adobe Illustrator 24.2.3, SVG Export Plug-In . SVG Version: 6.00 Build 0)  -->

<svg
   xmlns:dc="http://purl.org/dc/elements/1.1/"
   xmlns:cc="http://creativecommons.org/ns#"
   xmlns:rdf="http://www.w3.org/1999/02/22-rdf-syntax-ns#"
   xmlns:svg="http://www.w3.org/2000/svg"
   xmlns="http://www.w3.org/2000/svg"
   xmlns:sodipodi="http://sodipodi.sourceforge.net/DTD/sodipodi-0.dtd"
   xmlns:inkscape="http://www.inkscape.org/namespaces/inkscape"
   version="1.1"
   id="Capa_1"
   x="0px"
   y="0px"
   viewBox="0 0 137.12526 24"
   xml:space="preserve"
   inkscape:version="0.91 r13725"
   sodipodi:docname="logo_footer.svg"
   width="137.12526"
   height="24"><metadata
     id="metadata45"><rdf:RDF><cc:Work
         rdf:about=""><dc:format>image/svg+xml</dc:format><dc:type
           rdf:resource="http://purl.org/dc/dcmitype/StillImage" /><dc:title></dc:title></cc:Work></rdf:RDF></metadata><defs
     id="defs43" /><sodipodi:namedview
     pagecolor="#ffffff"
     bordercolor="#666666"
     borderopacity="1"
     objecttolerance="10"
     gridtolerance="10"
     guidetolerance="10"
     inkscape:pageopacity="0"
     inkscape:pageshadow="2"
     inkscape:window-width="1547"
     inkscape:window-height="876"
     id="namedview41"
     showgrid="false"
     fit-margin-top="0"
     fit-margin-left="0"
     fit-margin-right="0"
     fit-margin-bottom="0"
     inkscape:zoom="1.375"
     inkscape:cx="101.76981"
     inkscape:cy="6.0374429"
     inkscape:window-x="53"
     inkscape:window-y="24"
     inkscape:window-maximized="1"
     inkscape:current-layer="Capa_1" /><style
     type="text/css"
     id="style3">
	.st0{fill:#1D1D1B;}
</style><g
     id="g5"
     style="fill:#ffffff;fill-opacity:1"
     transform="matrix(0.25136154,0,0,0.25136154,-169.48555,-123.77294)"><path
       class="st0"
       d="m 722.01,492.41 c -26.37,0 -47.74,21.37 -47.74,47.74 0,26.37 21.37,47.74 47.74,47.74 26.37,0 47.74,-21.37 47.74,-47.74 0,-26.36 -21.37,-47.74 -47.74,-47.74 z m 20.75,55.65 c -1.06,1.42 -2.12,2.83 -3.18,4.25 l -0.01,0 c -5.03,8.26 -10.09,16.5 -15.14,24.76 -0.1,0.19 -0.19,0.41 -0.29,0.6 -0.09,0.01 -0.18,0.02 -0.27,0.03 -0.13,-0.18 -0.25,-0.37 -0.4,-0.54 -4.46,-4.91 -8.93,-9.82 -13.39,-14.74 l 27.42,-9.6 -27.26,6.74 c -2.72,-3.62 -5.43,-7.24 -8.15,-10.86 -4.17,-5.56 -5.97,-11.74 -5.1,-18.39 0.36,-3.62 1.42,-6.82 3,-9.57 l 13.24,4.68 c -0.21,1.63 -0.33,3.43 -0.33,5.44 0,11.71 3.68,20.29 10.15,20.29 6.35,0 8.47,-7.25 8.36,-17.28 -0.01,-0.69 -0.03,-1.37 -0.06,-2.05 l 15.87,5.61 c -0.59,3.81 -2.05,7.37 -4.46,10.63 z m 6.91,-12.74 -16.71,-5.26 c -0.84,-10.3 -4.38,-18.73 -10.57,-18.51 -4.25,0.15 -7.73,3.93 -8.51,12.51 l -13.94,-4.39 c 4.42,-8.4 13.47,-13.15 22.96,-13.48 13.07,-0.46 25.12,6.77 26.67,21.67 0.05,0.35 0.14,0.7 0.17,1.06 0.22,2.18 0.19,4.32 -0.07,6.4 z"
       id="path7"
       style="fill:#ffffff;fill-opacity:1"
       inkscape:connector-curvature="0" /><g
       id="g9"
       style="fill:#ffffff;fill-opacity:1"><g
         id="g11"
         style="fill:#ffffff;fill-opacity:1"><path
           class="st0"
           d="m 803.37,539.45 c -0.12,-1.12 -0.49,-1.99 -1.11,-2.58 -0.61,-0.6 -1.46,-0.89 -2.55,-0.89 -0.94,0 -1.69,0.2 -2.23,0.59 -0.61,0.38 -1.07,0.88 -1.37,1.51 -0.31,0.63 -0.52,1.35 -0.62,2.15 -0.13,0.84 -0.2,1.68 -0.2,2.54 0,0.8 0.07,1.61 0.2,2.41 0.1,0.8 0.31,1.52 0.62,2.15 0.3,0.63 0.75,1.14 1.36,1.51 0.54,0.43 1.29,0.64 2.23,0.64 1.12,0 2.04,-0.4 2.75,-1.2 0.68,-0.77 1.07,-1.7 1.16,-2.79 l 9.59,0.01 c -0.51,3.69 -2.01,6.51 -4.51,8.46 -2.51,1.99 -5.57,3 -9.19,3.04 -4.06,-0.03 -7.4,-1.35 -10.03,-3.94 -2.77,-2.5 -4.18,-5.94 -4.21,-10.3 0.03,-4.36 1.44,-7.84 4.21,-10.43 2.62,-2.54 5.97,-3.83 10.03,-3.86 3.55,0 6.58,0.87 9.09,2.61 2.46,1.81 3.9,4.6 4.31,8.38 l -9.53,0 z"
           id="path13"
           style="fill:#ffffff;fill-opacity:1"
           inkscape:connector-curvature="0" /><path
           class="st0"
           d="m 816.27,529.12 9.63,0 0,4.35 0.1,0 c 0.81,-1.64 1.81,-2.89 2.99,-3.76 1.14,-0.83 2.61,-1.25 4.41,-1.25 1.01,0 1.99,0.14 2.95,0.41 l 0,9.15 c -0.48,-0.21 -1.01,-0.38 -1.59,-0.51 -0.58,-0.1 -1.37,-0.15 -2.38,-0.15 -4.03,-0.07 -6.06,2.67 -6.09,8.21 l 0,10.74 -10.02,0 0,-27.19 z"
           id="path15"
           style="fill:#ffffff;fill-opacity:1"
           inkscape:connector-curvature="0" /><path
           class="st0"
           d="m 844.4,526.49 -6.88,0 5,-7.77 10.59,0 -8.71,7.77 z m -6.78,29.8 0,-27.17 10.02,0 0,27.17 -10.02,0 z"
           id="path17"
           style="fill:#ffffff;fill-opacity:1"
           inkscape:connector-curvature="0" /><path
           class="st0"
           d="m 851.22,529.12 9.99,0 0,3.6 0.1,0 c 2.13,-2.93 5.09,-4.35 8.89,-4.27 1.5,0 2.93,0.34 4.29,1.02 1.36,0.75 2.38,1.81 3.04,3.2 0.1,-0.14 0.32,-0.41 0.66,-0.82 0.36,-0.46 0.9,-0.95 1.64,-1.48 0.73,-0.51 1.65,-0.96 2.76,-1.35 1.16,-0.38 2.56,-0.56 4.19,-0.56 3.34,0.07 5.7,1.04 7.08,2.91 0.71,0.9 1.21,1.88 1.51,2.94 0.28,1.11 0.42,2.22 0.42,3.35 l 0,18.63 -10.02,0 0,-14.68 c 0.03,-1.36 -0.13,-2.5 -0.48,-3.42 -0.45,-0.94 -1.48,-1.42 -3.09,-1.46 -1.36,0 -2.3,0.43 -2.8,1.3 -0.59,0.92 -0.89,2.11 -0.89,3.58 l 0,14.68 -10.01,0 0,-14.68 c 0.03,-1.36 -0.13,-2.5 -0.48,-3.42 -0.45,-0.94 -1.48,-1.42 -3.09,-1.46 -1.36,0 -2.3,0.43 -2.8,1.3 -0.59,0.92 -0.89,2.11 -0.89,3.58 l 0,14.68 -10.02,0 0,-27.17 z"
           id="path19"
           style="fill:#ffffff;fill-opacity:1"
           inkscape:connector-curvature="0" /><path
           class="st0"
           d="m 907.94,545.04 c 0.17,1.53 0.69,2.79 1.56,3.76 0.84,1.02 2.07,1.54 3.71,1.54 0.89,0 1.73,-0.18 2.53,-0.54 0.8,-0.31 1.41,-0.78 1.82,-1.41 l 9.7,0 c -1.1,2.93 -2.89,5.09 -5.39,6.49 -2.48,1.4 -5.29,2.1 -8.45,2.1 -4.38,-0.03 -7.95,-1.28 -10.7,-3.73 -2.87,-2.44 -4.32,-5.92 -4.35,-10.45 0.03,-4.09 1.34,-7.5 3.92,-10.22 2.56,-2.67 5.98,-4.05 10.26,-4.12 10.28,0.14 15.37,5.67 15.27,16.59 l -19.88,0 z m 10.28,-5.36 c -0.04,-1.3 -0.47,-2.39 -1.29,-3.27 -0.85,-0.87 -1.98,-1.31 -3.41,-1.31 -3.19,0.03 -5.03,1.56 -5.52,4.58 l 10.22,0 z"
           id="path21"
           style="fill:#ffffff;fill-opacity:1"
           inkscape:connector-curvature="0" /><path
           class="st0"
           d="m 931,529.12 9.98,0 0,3.45 0.1,0 c 1.84,-2.74 4.78,-4.12 8.83,-4.12 2.46,0 4.57,0.75 6.33,2.25 1.75,1.5 2.64,3.82 2.67,6.95 l 0,18.63 -10.02,0 0,-14.26 c 0.03,-1.6 -0.15,-2.9 -0.56,-3.89 -0.43,-0.97 -1.42,-1.46 -2.99,-1.46 -0.98,-0.03 -1.91,0.28 -2.8,0.95 -0.43,0.34 -0.79,0.86 -1.1,1.56 -0.29,0.73 -0.43,1.65 -0.43,2.74 l 0,14.36 -10.01,0 0,-27.16 z"
           id="path23"
           style="fill:#ffffff;fill-opacity:1"
           inkscape:connector-curvature="0" /><path
           class="st0"
           d="m 970.64,545.04 c 0.17,1.53 0.69,2.79 1.56,3.76 0.83,1.02 2.07,1.54 3.71,1.54 0.89,0 1.73,-0.18 2.53,-0.54 0.8,-0.31 1.41,-0.78 1.82,-1.41 l 9.7,0 c -1.1,2.93 -2.89,5.09 -5.39,6.49 -2.48,1.4 -5.29,2.1 -8.45,2.1 -4.38,-0.03 -7.95,-1.28 -10.7,-3.73 -2.87,-2.44 -4.32,-5.92 -4.35,-10.45 0.03,-4.09 1.34,-7.5 3.92,-10.22 2.56,-2.67 5.98,-4.05 10.26,-4.12 10.28,0.14 15.37,5.67 15.27,16.59 l -19.88,0 z m 10.28,-5.36 c -0.04,-1.3 -0.47,-2.39 -1.29,-3.27 -0.85,-0.87 -1.98,-1.31 -3.41,-1.31 -3.19,0.03 -5.03,1.56 -5.52,4.58 l 10.22,0 z"
           id="path25"
           style="fill:#ffffff;fill-opacity:1"
           inkscape:connector-curvature="0" /><path
           class="st0"
           d="m 1009.44,537.04 c -0.07,-0.92 -0.45,-1.6 -1.17,-2.06 -0.71,-0.54 -1.53,-0.81 -2.46,-0.81 -0.82,0 -1.57,0.12 -2.25,0.36 -0.75,0.29 -1.12,0.87 -1.12,1.75 0,0.34 0.14,0.62 0.42,0.82 0.26,0.26 0.53,0.45 0.81,0.59 0.5,0.17 1.1,0.31 1.78,0.41 0.7,0.15 1.44,0.3 2.25,0.44 1.71,0.27 3.46,0.69 5.27,1.26 1.73,0.5 3.2,1.33 4.4,2.52 0.61,0.56 1.09,1.27 1.43,2.1 0.3,0.84 0.45,1.84 0.45,3 0,1.87 -0.4,3.4 -1.19,4.59 -0.79,1.26 -1.84,2.25 -3.15,2.98 -2.79,1.36 -5.88,2.02 -9.28,1.99 -3.31,0 -6.31,-0.73 -9,-2.19 -2.67,-1.46 -4.14,-3.92 -4.39,-7.37 l 9.87,0 c 0.07,0.93 0.48,1.72 1.25,2.38 0.56,0.52 1.49,0.79 2.78,0.79 0.73,0 1.5,-0.16 2.29,-0.49 0.77,-0.31 1.17,-0.84 1.2,-1.61 0.03,-0.77 -0.3,-1.35 -1,-1.74 -0.77,-0.38 -2.33,-0.76 -4.7,-1.15 -3.9,-0.66 -6.73,-1.7 -8.49,-3.09 -1.74,-1.35 -2.61,-3.16 -2.61,-5.45 0,-1.7 0.41,-3.13 1.24,-4.27 0.79,-1.16 1.83,-2.04 3.11,-2.63 1.28,-0.67 2.66,-1.12 4.14,-1.36 1.41,-0.24 2.8,-0.36 4.17,-0.36 3.08,-0.05 5.96,0.49 8.64,1.61 1.28,0.6 2.32,1.47 3.11,2.62 0.79,1.13 1.23,2.58 1.31,4.36 l -9.11,0 z"
           id="path27"
           style="fill:#ffffff;fill-opacity:1"
           inkscape:connector-curvature="0" /><path
           class="st0"
           d="m 1065.03,556.29 -9.88,0 0,-2.99 -0.1,0 c -0.27,0.43 -0.62,0.83 -1.04,1.2 -0.4,0.43 -0.88,0.83 -1.44,1.2 -0.56,0.39 -1.28,0.69 -2.17,0.89 -0.86,0.22 -1.93,0.35 -3.21,0.38 -3.76,-0.12 -6.57,-1.7 -8.44,-4.73 -1.9,-2.9 -2.86,-6.12 -2.86,-9.69 0,-1.64 0.2,-3.27 0.59,-4.91 0.34,-1.64 0.95,-3.15 1.84,-4.55 0.87,-1.4 2.05,-2.53 3.55,-3.4 1.5,-0.8 3.37,-1.22 5.6,-1.25 3.25,0.03 5.73,1.25 7.44,3.65 l 0.1,0 0,-13.19 10.02,0 0,37.39 z m -9.68,-13.6 c 0,-1.72 -0.28,-3.26 -0.85,-4.63 -0.34,-0.63 -0.81,-1.13 -1.43,-1.51 -0.66,-0.39 -1.47,-0.59 -2.44,-0.59 -1.84,0.03 -3.11,0.73 -3.8,2.1 -0.34,0.63 -0.58,1.35 -0.72,2.15 -0.14,0.8 -0.21,1.63 -0.21,2.48 0,0.8 0.07,1.61 0.21,2.41 0.14,0.8 0.38,1.52 0.72,2.15 0.69,1.43 1.96,2.17 3.8,2.2 0.97,0 1.79,-0.23 2.44,-0.69 0.62,-0.38 1.1,-0.88 1.43,-1.51 0.57,-1.33 0.85,-2.85 0.85,-4.56 l 0,0 z"
           id="path29"
           style="fill:#ffffff;fill-opacity:1"
           inkscape:connector-curvature="0" /><path
           class="st0"
           d="m 1076.68,545.04 c 0.17,1.53 0.69,2.79 1.56,3.76 0.84,1.02 2.07,1.54 3.71,1.54 0.89,0 1.73,-0.18 2.53,-0.54 0.8,-0.31 1.41,-0.78 1.82,-1.41 l 9.7,0 c -1.1,2.93 -2.89,5.09 -5.39,6.49 -2.48,1.4 -5.29,2.1 -8.45,2.1 -4.38,-0.03 -7.95,-1.28 -10.7,-3.73 -2.87,-2.44 -4.32,-5.92 -4.35,-10.45 0.03,-4.09 1.34,-7.5 3.92,-10.22 2.56,-2.67 5.98,-4.05 10.26,-4.12 10.28,0.14 15.37,5.67 15.27,16.59 l -19.88,0 z m 10.28,-5.36 c -0.04,-1.3 -0.47,-2.39 -1.29,-3.27 -0.85,-0.87 -1.98,-1.31 -3.41,-1.31 -3.19,0.03 -5.03,1.56 -5.52,4.58 l 10.22,0 z"
           id="path31"
           style="fill:#ffffff;fill-opacity:1"
           inkscape:connector-curvature="0" /><path
           class="st0"
           d="m 1142.71,542.71 c 0,3.87 -1.18,7.18 -3.54,9.93 -2.34,2.83 -6.05,4.27 -11.12,4.34 -5,-0.07 -8.69,-1.52 -11.07,-4.35 -2.43,-2.76 -3.62,-6.08 -3.56,-9.94 -0.05,-3.92 1.14,-7.24 3.56,-9.97 2.38,-2.78 6.07,-4.2 11.07,-4.27 5.07,0.07 8.78,1.49 11.12,4.27 2.36,2.74 3.54,6.06 3.54,9.99 z m -10.02,0 c 0,-0.73 -0.04,-1.51 -0.11,-2.33 -0.11,-0.8 -0.33,-1.52 -0.67,-2.15 -0.32,-0.68 -0.77,-1.24 -1.36,-1.67 -0.66,-0.39 -1.49,-0.59 -2.5,-0.59 -0.98,0 -1.76,0.2 -2.34,0.59 -0.66,0.43 -1.14,0.98 -1.46,1.67 -0.58,1.4 -0.86,2.9 -0.82,4.48 0,0.7 0.07,1.43 0.21,2.2 0.11,0.77 0.31,1.5 0.61,2.2 0.32,0.7 0.81,1.26 1.46,1.67 0.58,0.46 1.37,0.69 2.34,0.69 1.01,0 1.84,-0.23 2.5,-0.69 0.59,-0.41 1.04,-0.96 1.36,-1.67 0.56,-1.43 0.82,-2.9 0.78,-4.4 z"
           id="path33"
           style="fill:#ffffff;fill-opacity:1"
           inkscape:connector-curvature="0" /><path
           class="st0"
           d="m 1174,556.29 -9.88,0 0,-2.99 -0.1,0 c -0.27,0.43 -0.62,0.83 -1.04,1.2 -0.41,0.43 -0.88,0.83 -1.44,1.2 -0.56,0.39 -1.28,0.69 -2.17,0.89 -0.86,0.22 -1.93,0.35 -3.21,0.38 -3.76,-0.12 -6.57,-1.7 -8.44,-4.73 -1.9,-2.9 -2.86,-6.12 -2.86,-9.69 0,-1.64 0.2,-3.27 0.59,-4.91 0.34,-1.64 0.95,-3.15 1.84,-4.55 0.87,-1.4 2.05,-2.53 3.55,-3.4 1.5,-0.8 3.37,-1.22 5.6,-1.25 3.25,0.03 5.73,1.25 7.44,3.65 l 0.1,0 0,-13.19 10.02,0 0,37.39 z m -9.67,-13.6 c 0,-1.72 -0.28,-3.26 -0.85,-4.63 -0.34,-0.63 -0.81,-1.13 -1.43,-1.51 -0.65,-0.39 -1.47,-0.59 -2.44,-0.59 -1.84,0.03 -3.11,0.73 -3.8,2.1 -0.34,0.63 -0.58,1.35 -0.72,2.15 -0.14,0.8 -0.21,1.63 -0.21,2.48 0,0.8 0.07,1.61 0.21,2.41 0.14,0.8 0.38,1.52 0.72,2.15 0.69,1.43 1.96,2.17 3.8,2.2 0.97,0 1.79,-0.23 2.44,-0.69 0.62,-0.38 1.1,-0.88 1.43,-1.51 0.57,-1.33 0.85,-2.85 0.85,-4.56 l 0,0 z"
           id="path35"
           style="fill:#ffffff;fill-opacity:1"
           inkscape:connector-curvature="0" /><path
           class="st0"
           d="m 1188.06,526.18 -10.01,0 0,-7.26 10.01,0 0,7.26 z m -10.02,2.94 10.01,0 0,27.17 -10.01,0 0,-27.17 z"
           id="path37"
           style="fill:#ffffff;fill-opacity:1"
           inkscape:connector-curvature="0" /><path
           class="st0"
           d="m 1219.8,542.71 c 0,3.87 -1.18,7.18 -3.54,9.93 -2.34,2.83 -6.05,4.27 -11.12,4.34 -5,-0.07 -8.69,-1.52 -11.07,-4.35 -2.43,-2.76 -3.62,-6.08 -3.56,-9.94 -0.05,-3.92 1.14,-7.24 3.56,-9.97 2.38,-2.78 6.07,-4.2 11.07,-4.27 5.07,0.07 8.78,1.49 11.12,4.27 2.36,2.74 3.54,6.06 3.54,9.99 z m -10.01,0 c 0,-0.73 -0.04,-1.51 -0.11,-2.33 -0.11,-0.8 -0.33,-1.52 -0.67,-2.15 -0.32,-0.68 -0.77,-1.24 -1.36,-1.67 -0.66,-0.39 -1.49,-0.59 -2.5,-0.59 -0.98,0 -1.76,0.2 -2.34,0.59 -0.66,0.43 -1.14,0.98 -1.46,1.67 -0.58,1.4 -0.86,2.9 -0.82,4.48 0,0.7 0.07,1.43 0.21,2.2 0.11,0.77 0.31,1.5 0.61,2.2 0.32,0.7 0.81,1.26 1.46,1.67 0.58,0.46 1.37,0.69 2.34,0.69 1.01,0 1.84,-0.23 2.5,-0.69 0.59,-0.41 1.04,-0.96 1.36,-1.67 0.56,-1.43 0.81,-2.9 0.78,-4.4 z"
           id="path39"
           style="fill:#ffffff;fill-opacity:1"
           inkscape:connector-curvature="0" /></g></g></g></svg>